<?xml version="1.0" encoding="UTF-8" standalone="no"?>
<!-- Created with Inkscape (http://www.inkscape.org/) -->

<svg
   width="93.019958mm"
   height="50.36657mm"
   viewBox="0 0 93.019958 50.36657"
   version="1.1"
   id="svg1"
   inkscape:version="1.3.2 (091e20e, 2023-11-25, custom)"
   sodipodi:docname="icon.svg"
   xmlns:inkscape="http://www.inkscape.org/namespaces/inkscape"
   xmlns:sodipodi="http://sodipodi.sourceforge.net/DTD/sodipodi-0.dtd"
   xmlns="http://www.w3.org/2000/svg"
   xmlns:svg="http://www.w3.org/2000/svg">
  <sodipodi:namedview
     id="namedview1"
     pagecolor="#ffffff"
     bordercolor="#000000"
     borderopacity="0.25"
     inkscape:showpageshadow="2"
     inkscape:pageopacity="0.0"
     inkscape:pagecheckerboard="0"
     inkscape:deskcolor="#d1d1d1"
     inkscape:document-units="mm"
     inkscape:zoom="2.0799476"
     inkscape:cx="110.8201"
     inkscape:cy="177.16792"
     inkscape:window-width="1920"
     inkscape:window-height="974"
     inkscape:window-x="-11"
     inkscape:window-y="-11"
     inkscape:window-maximized="1"
     inkscape:current-layer="layer2" />
  <defs
     id="defs1" />
  <g
     inkscape:groupmode="layer"
     id="layer3"
     inkscape:label="Stamm"
     transform="translate(-63.301222,-18.821466)">
    <path
       style="display:inline;fill:#784421;stroke:#280b0b;stroke-width:0.264442"
       d="m 84.541909,31.83647 c -2.913703,3.13588 -8.224371,16.366066 -14.02672,30.473567 h 6.332726 c 0.831364,-9.667432 8.319667,-27.308154 10.554539,-30.305496"
       id="path4-9-0-9"
       sodipodi:nodetypes="cccc" />
  </g>
  <g
     inkscape:groupmode="layer"
     id="layer4"
     inkscape:label="StammVerzierung"
     transform="translate(-23.768165,-20.511429)">
    <path
       style="fill:#000000;stroke:#280b0b;stroke-width:0.256;stroke-dasharray:none"
       d="m 77.233057,59.310037 h -5.533"
       id="path12"
       sodipodi:nodetypes="cc"
       transform="translate(-39.533057,1.6899627)" />
    <path
       style="fill:#000000;stroke:#280b0b;stroke-width:0.256;stroke-dasharray:none"
       d="m 33.384,58 h 5.048"
       id="path13"
       sodipodi:nodetypes="cc" />
    <path
       style="fill:#000000;stroke:#280b0b;stroke-width:0.256;stroke-dasharray:none"
       d="m 34.667,55 h 4.548"
       id="path13-3"
       sodipodi:nodetypes="cc" />
    <path
       style="fill:#000000;stroke:#280b0b;stroke-width:0.256;stroke-dasharray:none"
       d="M 38.502,46 H 42.25"
       id="path13-3-0"
       sodipodi:nodetypes="cc" />
    <path
       style="fill:#000000;stroke:#280b0b;stroke-width:0.256;stroke-dasharray:none"
       d="m 37.155,49 h 3.94"
       id="path13-3-0-0"
       sodipodi:nodetypes="cc" />
    <path
       style="fill:#000000;stroke:#280b0b;stroke-width:0.256;stroke-dasharray:none"
       d="m 41.203,40 h 3.471"
       id="path13-3-0-0-5"
       sodipodi:nodetypes="cc" />
    <path
       style="fill:#000000;stroke:#280b0b;stroke-width:0.256;stroke-dasharray:none"
       d="m 42.721,37 h 3.271"
       id="path13-3-0-0-5-7"
       sodipodi:nodetypes="cc" />
    <path
       style="fill:#000000;stroke:#280b0b;stroke-width:0.256;stroke-dasharray:none"
       d="m 44.605,34 h 3.071"
       id="path13-3-0-0-5-7-1"
       sodipodi:nodetypes="cc" />
    <path
       style="fill:#000000;stroke:#280b0b;stroke-width:0.256;stroke-dasharray:none"
       d="m 39.787,43 h 3.587"
       id="path13-3-0-0-5-5"
       sodipodi:nodetypes="cc" />
    <path
       style="fill:#000000;stroke:#280b0b;stroke-width:0.256;stroke-dasharray:none"
       d="m 35.943,52 h 4.134"
       id="path13-3-0-6"
       sodipodi:nodetypes="cc" />
  </g>
  <g
     inkscape:groupmode="layer"
     id="layer2"
     inkscape:label="Schrift"
     style="display:inline"
     transform="translate(-23.768165,-20.511429)">
    <path
       style="fill:#000000;stroke:none;stroke-width:0.256;stroke-dasharray:none"
       d="m 61,38 v 4 c 8.79e-4,-1.350027 -2,-1.5 -2,-1.5 h -9.5 v 22 c 0,0 0.09442,1.497696 2,1.5 h -7 c 1.938976,-0.01294 2,-1.5 2,-1.5 v -22 H 37 c 0,0 -2.008156,0.108046 -2,1.5 v -4 z"
       id="path5"
       sodipodi:nodetypes="ccccccccccccc" />
    <path
       style="fill:#000000;stroke:none;stroke-width:0.256;stroke-dasharray:none"
       d="M 52.720611,64.000167 C 54.636786,63.988786 54.721055,62.5 54.721055,62.5 V 51 h 3 v 2 c 0.10833,0.06464 0.387085,-1.957371 2.999999,-2 0,0 4.66471,0.07516 4.500001,5.5 h -2.5 c -8.3e-5,-2.531475 -2.000001,-2.5 -2.000001,-2.5 -2.365667,0.04256 -2.999999,3 -2.999999,3 v 5.5 c 0,0 0.07583,1.476314 2,1.500167 z"
       id="path6"
       sodipodi:nodetypes="ccccccccccccc" />
    <path
       id="path7"
       style="fill:#000000;stroke:none;stroke-width:0.23847;stroke-dasharray:none"
       d="m 72.97074,51.244417 a 6.380765,6.380765 0 0 0 -6.380489,6.380489 6.380765,6.380765 0 0 0 6.380489,6.381006 6.380765,6.380765 0 0 0 6.381006,-6.381006 6.380765,6.380765 0 0 0 -6.381006,-6.380489 z m 0,2.94504 a 3.4357967,3.4357965 0 0 1 3.435966,3.435449 3.4357967,3.4357965 0 0 1 -3.435966,3.435966 3.4357967,3.4357965 0 0 1 -3.435449,-3.435966 3.4357967,3.4357965 0 0 1 3.435449,-3.435449 z" />
    <path
       id="path7-9"
       style="display:inline;fill:#000000;stroke:none;stroke-width:0.23847;stroke-dasharray:none"
       d="m 87.441691,51.244417 c -1.290039,-4.9e-5 -2.490678,0.382796 -3.4945,1.041012 -3.831413,2.512295 -3.83676,8.152877 -0.01056,10.672589 1.005955,0.662463 2.210491,1.047943 3.505062,1.047894 3.523986,-1.52e-4 6.380622,-2.85702 6.380489,-6.381006 -1.52e-4,-3.523784 -2.856705,-6.380337 -6.380489,-6.380489 z m 0,2.94504 c 1.897469,-9.4e-5 3.435774,1.537981 3.435966,3.435449 9.4e-5,1.89767 -1.538296,3.43606 -3.435966,3.435966 -1.89767,9.4e-5 -3.43606,-1.538296 -3.435966,-3.435966 1.92e-4,-1.897468 1.538497,-3.435543 3.435966,-3.435449 z"
       sodipodi:nodetypes="cccccccccccc" />
    <path
       style="fill:#000000;stroke:none;stroke-width:0.256;stroke-dasharray:none"
       d="M 83.941666,62.944429 V 69.25 c 0,0 0.140856,1.483401 2,1.5 h -7 c 1.981231,-0.0024 2,-1.5 2,-1.5 V 51 h 3 v 1.285429"
       id="path8"
       sodipodi:nodetypes="cccccccc" />
    <path
       style="fill:#000000;stroke:none;stroke-width:0.256;stroke-dasharray:none"
       d="m 94.384203,51 h 6.999987 c -1.941564,-0.05818 -1.999994,1.5 -1.999994,1.5 v 10 c 0,0 0.0162,1.48385 1.999994,1.5 h -6.999987 c 2.012771,0.0137 2,-1.5 2,-1.5 v -10 c 0,0 0.159811,-1.485948 -2,-1.5 z"
       id="path9"
       sodipodi:nodetypes="ccccccccc" />
    <circle
       style="fill:#000000;stroke:none;stroke-width:0.207836;stroke-dasharray:none"
       id="path10"
       cx="97.883331"
       cy="46.25"
       r="2.1460819" />
    <path
       style="fill:#000000;stroke:none;stroke-width:0.237513;stroke-dasharray:none"
       d="m 114.08193,55.997869 h 2.5787 c 0.0441,0.04381 0.17496,-5.091702 -6.87655,-5.00711 0,0 -6.94936,0.04164 -6.87655,6.509243 -0.0781,6.647214 6.87655,6.509242 6.87655,6.509242 6.87089,0.03377 6.87655,-5.007109 6.87655,-5.007109 h -2.5787 c 0.16764,2.11132 -4.29785,2.002843 -4.29785,2.002843 -4.1966,-0.145425 -4.29784,-3.504976 -4.29784,-3.504976 0,0 0.0491,-3.426123 4.29784,-3.504978 0,0 4.10066,-0.248888 4.29785,2.002845 z"
       id="path11"
       sodipodi:nodetypes="ccccccccccc" />
  </g>
  <g
     inkscape:label="Ebene 1"
     inkscape:groupmode="layer"
     id="layer1"
     style="display:inline"
     transform="translate(-23.768165,-20.511429)">
    <path
       style="display:inline;fill:#008000;stroke:#280b0b;stroke-width:0.264442"
       d="m 47.935203,33.730553 c 1.732512,-0.371022 1.657183,0.422644 3.383855,1.954845 l 2.280145,-1.68859 -0.96305,2.54623 c 2.821169,0.84782 2.854034,2.358283 3.7687,3.23686 l 2.957426,-1.431399 -1.965799,2.517654 c 2.810246,1.873694 4.104288,6.096565 4.793351,8.936447 1.123535,-4.592599 2.592215,-18.920874 -10.387813,-21.799017 2.492142,-1.192433 3.783892,-1.062017 5.243723,0.359685 l 2.37958,-2.448399 -1.11543,2.693238 c 3.0378,0.401018 3.31659,1.306712 4.08991,2.121948 l 2.75139,-1.713879 -1.5616,2.611627 c 3.02856,1.848802 3.67081,4.279609 5.0566,6.529071 -0.616552,-2.595666 0.38602,-9.505944 -4.479947,-13.055328 -2.296547,-1.675172 -7.469447,-2.878622 -11.843705,-2.015999 -3.390848,0.778882 -3.339153,0.763613 -7.195184,-1.065695 -5.248879,-2.490078 -11.576906,-1.3193 -15.56464,1.301916 -4.768229,3.134249 -6.624215,8.57193 -5.192346,15.430136 2.972533,-5.270745 2.704939,-6.335045 5.431711,-8.531959 l -1.092395,-2.557743 2.227239,1.567186 c 1.987457,-1.763549 2.014881,-1.869055 4.758298,-2.211767 l 0.424236,-3.209184 1.022759,2.858061 c 2.630938,-1.004485 4.662069,-0.146584 6.837384,0.8708 -17.232967,2.496868 -15.257373,13.630801 -16.268947,17.599268 1.544641,-2.336449 2.260504,-4.861255 5.636214,-6.781551 l -1.740595,-2.712619 3.066763,1.780155 c 0.861952,-0.846761 1.1727,-1.787478 4.558704,-2.204004 l -1.243282,-2.797386 2.652337,2.543079 c 1.627161,-1.476678 3.066976,-1.612138 4.433863,-1.401758"
       id="path4-9-0"
       sodipodi:nodetypes="ccccccccccccccccscsscccccccccccccccc" />
  </g>
</svg>
